…
```
## Nr. of new dosimeter readings added to staffdose: 612 
## Nr. of dosimeter readings read from reports found in staffdose after transfer: 612 of 612
```

```r
# check result
dbGetQuery(mp_db_conn, "SELECT * FROM staffdose") %>% tibble()
```

```
## # A tibble: 612 × 20
##       id customer_name   customer_uid department department_uid name  person_uid
##    <int> <chr>                  <int> <chr>               <int> <chr>      <int>
##  1     1 Hogsmeade Roya…          141 Nuclear M…              1 Seve…      12368
##  2     2 Hogsmeade Roya…          141 Nuclear M…              1 Harr…      12369
##  3     3 Hogsmeade Roya…          141 Nuclear M…              1 Parv…      12370
##  4     4 Hogsmeade Roya…          141 Nuclear M…              1 Parv…      12370
##  5     5 Hogsmeade Roya…          141 Nuclear M…              1 Cedr…      12371
##  6     6 Hogsmeade Roya…          141 Nuclear M…              1 Cedr…      12371
##  7     7 Hogsmeade Roya…          141 Nuclear M…              1 Ron …      12372
##  8     8 Hogsmeade Roya…          141 Nuclear M…              1 Tom …      12373
##  9     9 Hogsmeade Roya…          141 Diagnosti…              2 Herm…      12374
## 10    10 Hogsmeade Roya…          141 Diagnosti…              2 Albu…      12375
## # … with 602 more rows, and 13 more variables: radiation_type <chr>,
## #   hp10 <dbl>, hp007 <dbl>, user_type <chr>, dosimeter_type <chr>,
## #   dosimeter_placement <chr>, dosimeter_uid <int>,
## #   measurement_period_start <chr>, measurement_period_end <chr>,
## #   read_date <chr>, report_date <chr>, report_uid <dbl>, status <chr>
```
…
