…
## Reading in Data
If your data files reside in the working directory you can access them in a relative fashion. My current working directory is the folder where this R-Markdown-File is stored and the data files are stored in a subfolder called "reports".

### Reading an Excel File
My preferred method to read Excel files is to use the `readxl`-package:


```r
read_xls(path = "reports/StaffDoses_1.xls")
```

```
## # A tibble: 22 x 18
##    `Customer name` `Customer UID` Department `Department UID` Name  `Person UID`
##    <chr>           <chr>          <chr>      <chr>            <chr> <chr>       
##  1 Hogsmeade Roya~ 141            Nuclear M~ 1                Seve~ 12368       
##  2 Hogsmeade Roya~ 141            Nuclear M~ 1                Harr~ 12369       
##  3 Hogsmeade Roya~ 141            Nuclear M~ 1                Parv~ 12370       
##  4 Hogsmeade Roya~ 141            Nuclear M~ 1                Parv~ 12370       
##  5 Hogsmeade Roya~ 141            Nuclear M~ 1                Cedr~ 12371       
##  6 Hogsmeade Roya~ 141            Nuclear M~ 1                Cedr~ 12371       
##  7 Hogsmeade Roya~ 141            Nuclear M~ 1                Ron ~ 12372       
##  8 Hogsmeade Roya~ 141            Nuclear M~ 1                Tom ~ 12373       
##  9 Hogsmeade Roya~ 141            Diagnosti~ 2                Herm~ 12374       
## 10 Hogsmeade Roya~ 141            Diagnosti~ 2                Albu~ 12375       
## # ... with 12 more rows, and 12 more variables: Radiation type <chr>,
## #   Hp(10) <chr>, Hp(0.07) <chr>, User type <chr>, Dosimeter type <chr>,
## #   Dosimeter placement <chr>, Dosimeter UID <chr>,
## #   Measurement period (start) <chr>, Measurement period (end) <chr>,
## #   Read date <chr>, Report date <chr>, Report UID <chr>
```
…
